fpga/attest/sim/build/tb_dna_reader.vcd
$date
	Tue Jul 14 05:49:52 2026
$end
$version
	Icarus Verilog
$end
$timescale
	1ps
$end
$scope module tb_dna_reader $end
$var wire 1 ! valid $end
$var wire 57 " dna_out [56:0] $end
$var parameter 32 # DNA_BITS $end
$var parameter 57 $ SIM_VAL $end
$var reg 1 % clk $end
$var reg 1 & rst_n $end
$var reg 1 ' start $end
$var integer 32 ( errors [31:0] $end
$scope function bit_reverse $end
$var reg 57 ) v [56:0] $end
$var integer 32 * i [31:0] $end
$upscope $end
$scope module dut $end
$var wire 1 % clk $end
$var wire 1 & rst_n $end
$var wire 1 ' start $end
$var wire 1 + dout $end
$var parameter 32 , DNA_BITS $end
$var parameter 2 - S_HOLD $end
$var parameter 2 . S_IDLE $end
$var parameter 2 / S_LOAD $end
$var parameter 2 0 S_SHIFT $end
$var reg 57 1 dna_out [56:0] $end
$var reg 1 2 read_pulse $end
$var reg 6 3 shift_cnt [5:0] $end
$var reg 1 4 shift_en $end
$var reg 2 5 state [1:0] $end
$var reg 1 ! valid $end
$scope module u_dna_port $end
$var wire 1 % CLK $end
$var wire 1 6 DIN $end
$var wire 1 2 READ $end
$var wire 1 4 SHIFT $end
$var wire 1 + DOUT $end
$var parameter 57 7 SIM_DNA_VALUE $end
$var reg 57 8 dna_reg [56:0] $end
$var reg 1 9 loaded $end
$upscope $end
$upscope $end
$scope task check $end
$var reg 1 : cond $end
$var reg 256 ; label [255:0] $end
$upscope $end
$upscope $end
$enddefinitions $end
$comment Show the parameter values. $end
$dumpall
b100100011010001010110011110001001101010111100110111101111 7
b10 0
b1 /
b0 .
b11 -
b111001 ,
b100100011010001010110011110001001101010111100110111101111 $
b111001 #
$end
#0
$dumpvars
bx ;
x:
09
b0 8
06
bx 5
x4
bx 3
x2
bx 1
0+
bx *
bx )
b0 (
0'
0&
0%
bx "
x!
$end
#5000
0!
b0 "
b0 1
02
04
b0 3
b0 5
1%
#10000
0%
#15000
1%
#20000
0%
#25000
1%
#27000
b10101000011000100100000011101100110000101101100011010010110010000100000011011000110111101110111001000000111010101101110011001000110010101110010001000000111001001100101011100110110010101110100 ;
1:
#30000
0%
#35000
1&
1%
#40000
0%
#45000
1%
#50000
0%
#55000
1'
1%
#60000
0%
#65000
b1 5
12
0'
1%
#70000
0%
#75000
1+
19
b100100011010001010110011110001001101010111100110111101111 8
b10 5
14
02
1%
#80000
0%
#85000
b10010001101000101011001111000100110101011110011011110111 8
b1 3
b1 "
b1 1
14
1%
#90000
0%
#95000
b1001000110100010101100111100010011010101111001101111011 8
b10 3
b11 "
b11 1
14
1%
#100000
0%
#105000
b100100011010001010110011110001001101010111100110111101 8
b11 3
b111 "
b111 1
14
1%
#110000
0%
#115000
0+
b10010001101000101011001111000100110101011110011011110 8
b100 3
b1111 "
b1111 1
14
1%
#120000
0%
#125000
1+
b1001000110100010101100111100010011010101111001101111 8
b101 3
b11110 "
b11110 1
14
1%
#130000
0%
#135000
b100100011010001010110011110001001101010111100110111 8
b110 3
b111101 "
b111101 1
14
1%
#140000
0%
#145000
b10010001101000101011001111000100110101011110011011 8
b111 3
b1111011 "
b1111011 1
14
1%
#150000
0%
#155000
b1001000110100010101100111100010011010101111001101 8
b1000 3
b11110111 "
b11110111 1
14
1%
#160000
0%
#165000
0+
b100100011010001010110011110001001101010111100110 8
b1001 3
b111101111 "
b111101111 1
14
1%
#170000
0%
#175000
1+
b10010001101000101011001111000100110101011110011 8
b1010 3
b1111011110 "
b1111011110 1
14
1%
#180000
0%
#185000
b1001000110100010101100111100010011010101111001 8
b1011 3
b11110111101 "
b11110111101 1
14
1%
#190000
0%
#195000
0+
b100100011010001010110011110001001101010111100 8
b1100 3
b111101111011 "
b111101111011 1
14
1%
#200000
0%
#205000
b10010001101000101011001111000100110101011110 8
b1101 3
b1111011110110 "
b1111011110110 1
14
1%
#210000
0%
#215000
1+
b1001000110100010101100111100010011010101111 8
b1110 3
b11110111101100 "
b11110111101100 1
14
1%
#220000
0%
#225000
b100100011010001010110011110001001101010111 8
b1111 3
b111101111011001 "
b111101111011001 1
14
1%
#230000
0%
#235000
b10010001101000101011001111000100110101011 8
b10000 3
b1111011110110011 "
b1111011110110011 1
14
1%
#240000
0%
#245000
b1001000110100010101100111100010011010101 8
b10001 3
b11110111101100111 "
b11110111101100111 1
14
1%
#250000
0%
#255000
0+
b100100011010001010110011110001001101010 8
b10010 3
b111101111011001111 "
b111101111011001111 1
14
1%
#260000
0%
#265000
1+
b10010001101000101011001111000100110101 8
b10011 3
b1111011110110011110 "
b1111011110110011110 1
14
1%
#270000
0%
#275000
0+
b1001000110100010101100111100010011010 8
b10100 3
b11110111101100111101 "
b11110111101100111101 1
14
1%
#280000
0%
#285000
1+
b100100011010001010110011110001001101 8
b10101 3
b111101111011001111010 "
b111101111011001111010 1
14
1%
#290000
0%
#295000
0+
b10010001101000101011001111000100110 8
b10110 3
b1111011110110011110101 "
b1111011110110011110101 1
14
1%
#300000
0%
#305000
1+
b1001000110100010101100111100010011 8
b10111 3
b11110111101100111101010 "
b11110111101100111101010 1
14
1%
#310000
0%
#315000
b100100011010001010110011110001001 8
b11000 3
b111101111011001111010101 "
b111101111011001111010101 1
14
1%
#320000
0%
#325000
0+
b10010001101000101011001111000100 8
b11001 3
b1111011110110011110101011 "
b1111011110110011110101011 1
14
1%
#330000
0%
#335000
b1001000110100010101100111100010 8
b11010 3
b11110111101100111101010110 "
b11110111101100111101010110 1
14
1%
#340000
0%
#345000
1+
b100100011010001010110011110001 8
b11011 3
b111101111011001111010101100 "
b111101111011001111010101100 1
14
1%
#350000
0%
#355000
0+
b10010001101000101011001111000 8
b11100 3
b1111011110110011110101011001 "
b1111011110110011110101011001 1
14
1%
#360000
0%
#365000
b1001000110100010101100111100 8
b11101 3
b11110111101100111101010110010 "
b11110111101100111101010110010 1
14
1%
#370000
0%
#375000
b100100011010001010110011110 8
b11110 3
b111101111011001111010101100100 "
b111101111011001111010101100100 1
14
1%
#380000
0%
#385000
1+
b10010001101000101011001111 8
b11111 3
b1111011110110011110101011001000 "
b1111011110110011110101011001000 1
14
1%
#390000
0%
#395000
b1001000110100010101100111 8
b100000 3
b11110111101100111101010110010001 "
b11110111101100111101010110010001 1
14
1%
#400000
0%
#405000
b100100011010001010110011 8
b100001 3
b111101111011001111010101100100011 "
b111101111011001111010101100100011 1
14
1%
#410000
0%
#415000
b10010001101000101011001 8
b100010 3
b1111011110110011110101011001000111 "
b1111011110110011110101011001000111 1
14
1%
#420000
0%
#425000
0+
b1001000110100010101100 8
b100011 3
b11110111101100111101010110010001111 "
b11110111101100111101010110010001111 1
14
1%
#430000
0%
#435000
b100100011010001010110 8
b100100 3
b111101111011001111010101100100011110 "
b111101111011001111010101100100011110 1
14
1%
#440000
0%
#445000
1+
b10010001101000101011 8
b100101 3
b1111011110110011110101011001000111100 "
b1111011110110011110101011001000111100 1
14
1%
#450000
0%
#455000
b1001000110100010101 8
b100110 3
b11110111101100111101010110010001111001 "
b11110111101100111101010110010001111001 1
14
1%
#460000
0%
#465000
0+
b100100011010001010 8
b100111 3
b111101111011001111010101100100011110011 "
b111101111011001111010101100100011110011 1
14
1%
#470000
0%
#475000
1+
b10010001101000101 8
b101000 3
b1111011110110011110101011001000111100110 "
b1111011110110011110101011001000111100110 1
14
1%
#480000
0%
#485000
0+
b1001000110100010 8
b101001 3
b11110111101100111101010110010001111001101 "
b11110111101100111101010110010001111001101 1
14
1%
#490000
0%
#495000
1+
b100100011010001 8
b101010 3
b111101111011001111010101100100011110011010 "
b111101111011001111010101100100011110011010 1
14
1%
#500000
0%
#505000
0+
b10010001101000 8
b101011 3
b1111011110110011110101011001000111100110101 "
b1111011110110011110101011001000111100110101 1
14
1%
#510000
0%
#515000
b1001000110100 8
b101100 3
b11110111101100111101010110010001111001101010 "
b11110111101100111101010110010001111001101010 1
14
1%
#520000
0%
#525000
b100100011010 8
b101101 3
b111101111011001111010101100100011110011010100 "
b111101111011001111010101100100011110011010100 1
14
1%
#530000
0%
#535000
1+
b10010001101 8
b101110 3
b1111011110110011110101011001000111100110101000 "
b1111011110110011110101011001000111100110101000 1
14
1%
#540000
0%
#545000
0+
b1001000110 8
b101111 3
b11110111101100111101010110010001111001101010001 "
b11110111101100111101010110010001111001101010001 1
14
1%
#550000
0%
#555000
1+
b100100011 8
b110000 3
b111101111011001111010101100100011110011010100010 "
b111101111011001111010101100100011110011010100010 1
14
1%
#560000
0%
#565000
b10010001 8
b110001 3
b1111011110110011110101011001000111100110101000101 "
b1111011110110011110101011001000111100110101000101 1
14
1%
#570000
0%
#575000
0+
b1001000 8
b110010 3
b11110111101100111101010110010001111001101010001011 "
b11110111101100111101010110010001111001101010001011 1
14
1%
#580000
0%
#585000
b100100 8
b110011 3
b111101111011001111010101100100011110011010100010110 "
b111101111011001111010101100100011110011010100010110 1
14
1%
#590000
0%
#595000
b10010 8
b110100 3
b1111011110110011110101011001000111100110101000101100 "
b1111011110110011110101011001000111100110101000101100 1
14
1%
#600000
0%
#605000
1+
b1001 8
b110101 3
b11110111101100111101010110010001111001101010001011000 "
b11110111101100111101010110010001111001101010001011000 1
14
1%
#610000
0%
#615000
0+
b100 8
b110110 3
b111101111011001111010101100100011110011010100010110001 "
b111101111011001111010101100100011110011010100010110001 1
14
1%
#620000
0%
#625000
b10 8
b110111 3
b1111011110110011110101011001000111100110101000101100010 "
b1111011110110011110101011001000111100110101000101100010 1
14
1%
#630000
0%
#635000
1+
b1 8
b111000 3
b11110111101100111101010110010001111001101010001011000100 "
b11110111101100111101010110010001111001101010001011000100 1
14
1%
#640000
0%
#645000
0+
b0 8
b11 5
b111001 3
b111101111011001111010101100100011110011010100010110001001 "
b111101111011001111010101100100011110011010100010110001001 1
04
1%
#650000
0%
#655000
1!
1%
#660000
0%
#665000
1%
#670000
0%
#675000
1%
#680000
0%
#685000
1%
#690000
0%
#695000
1%
#700000
0%
#705000
1%
#710000
0%
#715000
b111001 *
b100100011010001010110011110001001101010111100110111101111 )
b10000001100100011011100110000101011111011011110111010101110100001000000011110100111101001000000110001001101001011101000101111101110010011001010111011001100101011100100111001101100101001010000101001101001001010011010101111101010110010000010100110000101001 ;
1%
#720000
0%
#725000
1'
1%
#730000
0%
#735000
0'
1%
